<?xml version="1.0" encoding="UTF-8" standalone="no"?>
<!-- Generator: Adobe Illustrator 12.0.0, SVG Export Plug-In . SVG Version: 6.00 Build 51448)  -->

<svg
   xmlns:dc="http://purl.org/dc/elements/1.1/"
   xmlns:cc="http://creativecommons.org/ns#"
   xmlns:rdf="http://www.w3.org/1999/02/22-rdf-syntax-ns#"
   xmlns:svg="http://www.w3.org/2000/svg"
   xmlns="http://www.w3.org/2000/svg"
   xmlns:sodipodi="http://sodipodi.sourceforge.net/DTD/sodipodi-0.dtd"
   xmlns:inkscape="http://www.inkscape.org/namespaces/inkscape"
   version="1.1"
   id="Laag_2"
   width="250"
   height="340"
   viewBox="0 0 250 340"
   overflow="visible"
   enable-background="new 0 0 224.5 264"
   xml:space="preserve"
   inkscape:version="0.48.0 r9654"
   sodipodi:docname="overlay_landscape.svg"
   style="overflow:visible"><metadata
   id="metadata8407"><rdf:RDF><cc:Work
       rdf:about=""><dc:format>image/svg+xml</dc:format><dc:type
         rdf:resource="http://purl.org/dc/dcmitype/StillImage" /><dc:title /></cc:Work></rdf:RDF></metadata><defs
   id="defs8405" /><sodipodi:namedview
   pagecolor="#ffffff"
   bordercolor="#666666"
   borderopacity="1"
   objecttolerance="10"
   gridtolerance="10"
   guidetolerance="10"
   inkscape:pageopacity="0"
   inkscape:pageshadow="2"
   inkscape:window-width="764"
   inkscape:window-height="603"
   id="namedview8403"
   showgrid="false"
   inkscape:zoom="0.89393939"
   inkscape:cx="160.3761"
   inkscape:cy="194.12078"
   inkscape:window-x="2548"
   inkscape:window-y="231"
   inkscape:window-maximized="0"
   inkscape:current-layer="Laag_2"
   units="px"
   borderlayer="true" />
<rect
   style="fill:#ffffff;fill-opacity:1;stroke:none"
   id="rect8409"
   width="317.34564"
   height="403.97903"
   x="-18.535025"
   y="-29.18928" />
<line
   x1="12.306568"
   y1="199.44031"
   x2="226.66823"
   y2="199.44031"
   id="line8395"
   style="fill:none;stroke:#000000;stroke-width:1.12933087" />
<line
   x1="12.306568"
   y1="255.54652"
   x2="226.66823"
   y2="255.54652"
   id="line8397"
   style="fill:none;stroke:#000000;stroke-width:1.12933087" />
<line
   x1="12.306568"
   y1="311.65274"
   x2="226.66823"
   y2="311.65274"
   id="line8399"
   style="fill:none;stroke:#000000;stroke-width:1.12933087" />
<line
   x1="0.50188237"
   y1="20.602535"
   x2="0.50188237"
   y2="319.39746"
   id="line8401"
   style="fill:none;stroke:#000000;stroke-width:1.09982872" />
<line
   id="line2987"
   y2="143.33408"
   x2="226.66823"
   y1="143.33408"
   x1="12.306568"
   style="fill:none;stroke:#000000;stroke-width:1.12933087" /><line
   id="line2991"
   y2="171.38719"
   x2="226.66821"
   y1="171.38719"
   x1="12.306568"
   style="fill:none;stroke:#000000;stroke-width:1.12933087" /><line
   id="line2993"
   y2="227.49341"
   x2="226.66821"
   y1="227.49341"
   x1="12.306568"
   style="fill:none;stroke:#000000;stroke-width:1.12933087" /><line
   style="fill:none;stroke:#000000;stroke-width:1.12933087"
   x1="12.306568"
   y1="283.59964"
   x2="226.66823"
   y2="283.59964"
   id="line2989" /></svg>