<?xml version="1.0" encoding="utf-8"?>
<!-- Generator: Adobe Illustrator 15.1.0, SVG Export Plug-In . SVG Version: 6.00 Build 0)  -->
<!DOCTYPE svg PUBLIC "-//W3C//DTD SVG 1.1//EN" "http://www.w3.org/Graphics/SVG/1.1/DTD/svg11.dtd">
<svg version="1.1"
	 id="svg2" xmlns:cc="http://creativecommons.org/ns#" xmlns:rdf="http://www.w3.org/1999/02/22-rdf-syntax-ns#" sodipodi:docname="square.svg" inkscape:version="0.48.0 r9654" xmlns:inkscape="http://www.inkscape.org/namespaces/inkscape" xmlns:svg="http://www.w3.org/2000/svg" xmlns:sodipodi="http://sodipodi.sourceforge.net/DTD/sodipodi-0.dtd" xmlns:dc="http://purl.org/dc/elements/1.1/"
	 xmlns="http://www.w3.org/2000/svg" xmlns:xlink="http://www.w3.org/1999/xlink" x="0px" y="0px" width="500px" height="500px"
	 viewBox="0 0 500 500" enable-background="new 0 0 500 500" xml:space="preserve">
<sodipodi:namedview  bordercolor="#666666" inkscape:current-layer="svg2" inkscape:window-height="1004" inkscape:pageopacity="0" borderopacity="1" inkscape:window-maximized="1" gridtolerance="10" inkscape:cx="299.82818" inkscape:zoom="1" inkscape:pageshadow="2" showgrid="false" inkscape:window-y="-8" guidetolerance="10" objecttolerance="10" inkscape:window-x="-8" inkscape:window-width="1280" id="namedview8" pagecolor="#ffffff" inkscape:cy="265.89347">
	</sodipodi:namedview>
<g id="svg8320" sodipodi:docname="square.svg" inkscape:version="0.48.0 r9654">
</g>
<g>
	<path fill="#B59FCB" d="M170.576,471.34l0.67,2.5l0.26,1.149l0.28-1.149l0.7-2.4h1.34l0.66,2.4l0.27,1.149l0.27-1.149l0.66-2.4
		h1.47l-1.6,5.2h-1.47l-0.69-2.4l-0.24-1.04l-0.24,1.04l-0.69,2.4h-1.47l-1.65-5.15L170.576,471.34z"/>
	<path fill="#B59FCB" d="M178.726,471.34l0.67,2.5l0.26,1.149l0.28-1.149l0.7-2.4h1.34l0.66,2.4l0.27,1.149l0.27-1.149l0.66-2.4
		h1.47l-1.6,5.2h-1.47l-0.69-2.4l-0.24-1.04l-0.24,1.04l-0.69,2.4h-1.47l-1.65-5.15L178.726,471.34z"/>
	<path fill="#B59FCB" d="M186.876,471.34l0.67,2.5l0.26,1.149l0.28-1.149l0.7-2.4h1.34l0.66,2.4l0.27,1.149l0.27-1.149l0.66-2.4
		h1.47l-1.6,5.2h-1.47l-0.69-2.4l-0.24-1.04l-0.24,1.04l-0.69,2.4h-1.47l-1.65-5.15L186.876,471.34z"/>
	<path fill="#B59FCB" d="M193.256,475.84c0-0.247,0.088-0.458,0.265-0.635s0.388-0.266,0.635-0.266c0.247,0,0.458,0.089,0.635,0.266
		s0.265,0.388,0.265,0.635c0,0.246-0.088,0.458-0.265,0.635s-0.388,0.265-0.635,0.265c-0.247,0-0.458-0.088-0.635-0.265
		S193.256,476.086,193.256,475.84z"/>
	<path fill="#845FA8" d="M201.794,471.613c-0.215-0.242-0.474-0.44-0.777-0.595c-0.304-0.154-0.665-0.23-1.085-0.23
		c-0.252,0-0.49,0.049-0.714,0.146c-0.224,0.098-0.42,0.243-0.588,0.434c-0.168,0.191-0.301,0.426-0.399,0.7
		c-0.098,0.275-0.147,0.586-0.147,0.932c0,0.699,0.172,1.243,0.518,1.631c0.345,0.387,0.812,0.581,1.4,0.581
		c0.252,0,0.485-0.028,0.7-0.084c0.214-0.057,0.406-0.131,0.574-0.225c0.168-0.093,0.317-0.195,0.448-0.308
		c0.13-0.112,0.247-0.22,0.35-0.322l0.546,1.33c-0.047,0.084-0.152,0.191-0.315,0.322c-0.164,0.131-0.374,0.259-0.63,0.385
		s-0.555,0.236-0.896,0.329s-0.721,0.14-1.141,0.14c-0.374,0-0.77-0.062-1.19-0.188c-0.42-0.126-0.81-0.331-1.169-0.616
		c-0.359-0.284-0.658-0.66-0.896-1.127c-0.238-0.467-0.357-1.036-0.357-1.708c0-0.682,0.124-1.27,0.371-1.764
		c0.247-0.495,0.56-0.903,0.938-1.226c0.378-0.321,0.795-0.558,1.253-0.707c0.457-0.148,0.896-0.224,1.316-0.224
		c0.317,0,0.611,0.03,0.882,0.091c0.271,0.061,0.513,0.133,0.728,0.217c0.214,0.084,0.399,0.176,0.553,0.273
		c0.154,0.098,0.273,0.188,0.357,0.272L201.794,471.613z"/>
	<path fill="#845FA8" d="M210.936,472.859c0,0.756-0.133,1.384-0.399,1.883c-0.266,0.5-0.595,0.901-0.987,1.204
		c-0.392,0.304-0.817,0.519-1.274,0.645c-0.457,0.126-0.877,0.188-1.26,0.188c-0.355,0-0.742-0.054-1.162-0.161
		c-0.42-0.106-0.814-0.298-1.183-0.573s-0.677-0.646-0.924-1.113c-0.248-0.467-0.371-1.064-0.371-1.792
		c0-0.756,0.133-1.384,0.399-1.883c0.266-0.499,0.595-0.9,0.987-1.204s0.816-0.519,1.274-0.645c0.457-0.126,0.877-0.188,1.26-0.188
		c0.355,0,0.744,0.056,1.169,0.168s0.819,0.306,1.183,0.581c0.364,0.275,0.67,0.648,0.917,1.12
		C210.812,471.56,210.936,472.15,210.936,472.859z M205.406,473c0,0.383,0.049,0.716,0.147,1.001
		c0.098,0.284,0.229,0.518,0.392,0.699c0.164,0.183,0.35,0.317,0.56,0.406s0.427,0.133,0.651,0.133c0.224,0,0.441-0.044,0.651-0.133
		s0.396-0.224,0.56-0.406c0.163-0.182,0.294-0.415,0.392-0.699c0.098-0.285,0.147-0.618,0.147-1.001s-0.049-0.717-0.147-1.001
		c-0.098-0.285-0.229-0.519-0.392-0.7c-0.164-0.183-0.35-0.317-0.56-0.406s-0.427-0.133-0.651-0.133
		c-0.224,0-0.441,0.044-0.651,0.133s-0.396,0.224-0.56,0.406c-0.163,0.182-0.294,0.415-0.392,0.7
		C205.455,472.283,205.406,472.617,205.406,473z"/>
	<path fill="#845FA8" d="M216.507,471.117c-0.159-0.191-0.429-0.287-0.812-0.287c-0.187,0-0.369,0.039-0.546,0.119
		c-0.177,0.079-0.334,0.183-0.469,0.309c-0.136,0.126-0.245,0.265-0.329,0.414s-0.126,0.295-0.126,0.435v4.533h-2.1v-7.14l2.1-0.21
		v1.275c0.056-0.139,0.149-0.286,0.28-0.443s0.299-0.304,0.504-0.438c0.206-0.134,0.448-0.245,0.728-0.333
		c0.28-0.088,0.593-0.132,0.938-0.132c0.299,0,0.579,0.052,0.84,0.154c0.261,0.103,0.49,0.254,0.686,0.455
		c0.196,0.2,0.352,0.45,0.469,0.749c0.117,0.298,0.175,0.639,0.175,1.021v3.206c0.009,0.131,0.044,0.231,0.105,0.301
		c0.061,0.07,0.17,0.105,0.329,0.105c0.168,0,0.317-0.042,0.448-0.126c0.065-0.037,0.126-0.079,0.182-0.126l0.056,1.399
		c-0.056,0.057-0.14,0.107-0.252,0.154c-0.112,0.047-0.236,0.091-0.371,0.133s-0.271,0.075-0.406,0.099
		c-0.135,0.022-0.254,0.034-0.357,0.034c-0.243,0-0.476-0.028-0.7-0.084s-0.42-0.149-0.588-0.28s-0.301-0.304-0.399-0.52
		c-0.098-0.215-0.147-0.481-0.147-0.8v-3.214C216.746,471.564,216.666,471.31,216.507,471.117z"/>
	<path fill="#845FA8" d="M227.959,474.806c0,0.131,0.033,0.231,0.098,0.301c0.065,0.07,0.177,0.105,0.336,0.105
		c0.084,0,0.161-0.012,0.231-0.035c0.07-0.023,0.128-0.054,0.175-0.091c0.056-0.037,0.103-0.079,0.14-0.126l0.14,1.399
		c-0.056,0.057-0.14,0.107-0.252,0.154s-0.236,0.091-0.371,0.133s-0.271,0.075-0.406,0.099c-0.136,0.022-0.254,0.034-0.357,0.034
		c-0.215,0-0.42-0.021-0.616-0.062s-0.376-0.112-0.539-0.21c-0.164-0.099-0.303-0.229-0.42-0.393
		c-0.117-0.163-0.203-0.366-0.259-0.608c-0.243,0.42-0.579,0.737-1.008,0.952c-0.429,0.214-0.891,0.321-1.386,0.321
		c-0.308,0-0.637-0.056-0.987-0.168c-0.35-0.111-0.674-0.306-0.973-0.581c-0.299-0.274-0.549-0.646-0.749-1.112
		c-0.201-0.467-0.301-1.06-0.301-1.778c0-0.588,0.091-1.122,0.273-1.603c0.182-0.481,0.443-0.895,0.784-1.239
		c0.34-0.346,0.756-0.611,1.246-0.798c0.49-0.187,1.038-0.28,1.645-0.28c0.121,0,0.254,0.007,0.399,0.021
		c0.145,0.015,0.285,0.033,0.42,0.057s0.259,0.051,0.371,0.084c0.112,0.032,0.196,0.062,0.252,0.091v-3.332h2.1L227.959,474.806z
		 M225.846,471.025c-0.093-0.064-0.206-0.121-0.336-0.168c-0.112-0.046-0.254-0.086-0.427-0.119
		c-0.173-0.032-0.38-0.049-0.623-0.049c-0.336,0-0.625,0.065-0.868,0.196c-0.243,0.131-0.443,0.304-0.602,0.518
		c-0.159,0.215-0.278,0.46-0.357,0.735c-0.08,0.275-0.119,0.562-0.119,0.861c0,0.317,0.033,0.611,0.098,0.882
		c0.065,0.271,0.168,0.504,0.308,0.7c0.14,0.195,0.315,0.35,0.525,0.462c0.21,0.111,0.459,0.168,0.749,0.168
		c0.205,0,0.408-0.037,0.609-0.112c0.201-0.074,0.378-0.182,0.532-0.322c0.154-0.14,0.278-0.31,0.371-0.511
		c0.093-0.2,0.14-0.422,0.14-0.665V471.025z"/>
	<path fill="#845FA8" d="M237.115,472.859c0,0.756-0.133,1.384-0.399,1.883c-0.266,0.5-0.595,0.901-0.987,1.204
		c-0.392,0.304-0.817,0.519-1.274,0.645c-0.457,0.126-0.877,0.188-1.26,0.188c-0.355,0-0.742-0.054-1.162-0.161
		c-0.42-0.106-0.814-0.298-1.183-0.573s-0.677-0.646-0.924-1.113c-0.248-0.467-0.371-1.064-0.371-1.792
		c0-0.756,0.133-1.384,0.399-1.883c0.266-0.499,0.595-0.9,0.987-1.204s0.816-0.519,1.274-0.645c0.457-0.126,0.877-0.188,1.26-0.188
		c0.355,0,0.744,0.056,1.169,0.168s0.819,0.306,1.183,0.581c0.364,0.275,0.67,0.648,0.917,1.12
		C236.991,471.56,237.115,472.15,237.115,472.859z M231.585,473c0,0.383,0.049,0.716,0.147,1.001
		c0.098,0.284,0.229,0.518,0.392,0.699c0.164,0.183,0.35,0.317,0.56,0.406s0.427,0.133,0.651,0.133c0.224,0,0.441-0.044,0.651-0.133
		s0.396-0.224,0.56-0.406c0.163-0.182,0.294-0.415,0.392-0.699c0.098-0.285,0.147-0.618,0.147-1.001s-0.049-0.717-0.147-1.001
		c-0.098-0.285-0.229-0.519-0.392-0.7c-0.164-0.183-0.35-0.317-0.56-0.406s-0.427-0.133-0.651-0.133
		c-0.224,0-0.441,0.044-0.651,0.133s-0.396,0.224-0.56,0.406c-0.163,0.182-0.294,0.415-0.392,0.7
		C231.634,472.283,231.585,472.617,231.585,473z"/>
	<path fill="#845FA8" d="M240.405,474.735c0,0.159,0.028,0.278,0.084,0.357c0.056,0.079,0.172,0.119,0.35,0.119
		c0.158,0,0.303-0.042,0.434-0.126c0.065-0.037,0.126-0.079,0.182-0.126l0.07,1.399c-0.056,0.057-0.14,0.107-0.252,0.154
		c-0.112,0.047-0.236,0.091-0.371,0.133c-0.136,0.042-0.271,0.075-0.406,0.099c-0.135,0.022-0.254,0.034-0.357,0.034
		c-0.243,0-0.476-0.027-0.7-0.084c-0.224-0.056-0.42-0.148-0.588-0.279s-0.301-0.304-0.399-0.519s-0.147-0.48-0.147-0.798v-8.932
		l2.1-0.309V474.735z"/>
	<path fill="#845FA8" d="M248.525,471.46c0,0.476-0.104,0.872-0.309,1.189s-0.473,0.572-0.805,0.764s-0.707,0.328-1.127,0.412
		s-0.846,0.126-1.273,0.126c-0.355,0-0.678-0.014-0.967-0.042c0.074,0.453,0.26,0.788,0.553,1.005
		c0.295,0.217,0.689,0.325,1.184,0.325c0.42,0,0.816-0.089,1.189-0.269s0.678-0.417,0.91-0.711l0.574,1.399
		c-0.279,0.309-0.668,0.572-1.162,0.791c-0.494,0.22-1.111,0.329-1.848,0.329c-0.355,0-0.734-0.051-1.141-0.153
		s-0.785-0.289-1.135-0.561c-0.35-0.271-0.642-0.642-0.875-1.112c-0.233-0.472-0.35-1.076-0.35-1.813
		c0-0.766,0.124-1.402,0.371-1.911c0.247-0.509,0.553-0.91,0.916-1.204c0.365-0.294,0.756-0.501,1.178-0.623
		c0.42-0.121,0.807-0.182,1.16-0.182c0.402,0,0.783,0.052,1.143,0.154s0.672,0.249,0.938,0.44s0.479,0.427,0.637,0.707
		S248.525,471.114,248.525,471.46z M246.635,471.544c0-0.271-0.102-0.485-0.307-0.645c-0.207-0.158-0.486-0.237-0.842-0.237
		c-0.26,0-0.484,0.054-0.672,0.16c-0.186,0.107-0.342,0.252-0.469,0.435c-0.125,0.182-0.219,0.395-0.279,0.637
		c-0.061,0.243-0.092,0.495-0.092,0.756c0.412,0,0.779-0.014,1.107-0.042c0.326-0.027,0.605-0.084,0.84-0.168
		c0.232-0.084,0.41-0.198,0.531-0.343S246.635,471.768,246.635,471.544z"/>
	<path fill="#845FA8" d="M256.926,474.806c0,0.131,0.032,0.231,0.098,0.301c0.065,0.07,0.178,0.105,0.336,0.105
		c0.084,0,0.161-0.012,0.231-0.035c0.069-0.023,0.128-0.054,0.175-0.091c0.056-0.037,0.103-0.079,0.14-0.126l0.141,1.399
		c-0.057,0.057-0.141,0.107-0.252,0.154c-0.112,0.047-0.236,0.091-0.371,0.133c-0.136,0.042-0.271,0.075-0.406,0.099
		c-0.136,0.022-0.254,0.034-0.357,0.034c-0.429,0-0.813-0.089-1.154-0.266s-0.567-0.49-0.68-0.938
		c-0.242,0.393-0.576,0.691-1.001,0.896s-0.884,0.308-1.379,0.308c-0.308,0-0.637-0.056-0.986-0.168
		c-0.351-0.111-0.675-0.306-0.974-0.581c-0.299-0.274-0.548-0.646-0.749-1.112c-0.2-0.467-0.301-1.06-0.301-1.778
		c0-0.588,0.098-1.122,0.294-1.603c0.196-0.481,0.479-0.895,0.847-1.239c0.369-0.346,0.824-0.611,1.365-0.798s1.162-0.28,1.862-0.28
		c0.513,0,1.043,0.049,1.589,0.146c0.546,0.099,1.057,0.227,1.533,0.386V474.806z M254.825,470.914
		c-0.103-0.047-0.252-0.096-0.447-0.147c-0.196-0.051-0.485-0.077-0.868-0.077c-0.336,0-0.63,0.065-0.882,0.196
		s-0.462,0.304-0.63,0.518c-0.168,0.215-0.294,0.46-0.379,0.735c-0.084,0.275-0.126,0.562-0.126,0.861
		c0,0.317,0.033,0.611,0.099,0.882s0.168,0.504,0.308,0.7c0.141,0.195,0.315,0.35,0.525,0.462c0.21,0.111,0.459,0.168,0.749,0.168
		c0.205,0,0.408-0.037,0.608-0.112c0.201-0.074,0.378-0.182,0.532-0.322c0.154-0.14,0.277-0.31,0.371-0.511
		c0.094-0.2,0.14-0.422,0.14-0.665V470.914z"/>
	<path fill="#845FA8" d="M263.268,471.117c-0.159-0.191-0.43-0.287-0.812-0.287c-0.187,0-0.369,0.039-0.546,0.119
		c-0.178,0.079-0.334,0.183-0.469,0.309c-0.136,0.126-0.245,0.265-0.329,0.414s-0.126,0.295-0.126,0.435v4.533h-2.101v-7.14
		l2.101-0.21v1.275c0.056-0.139,0.149-0.286,0.28-0.443c0.13-0.157,0.298-0.304,0.504-0.438c0.205-0.134,0.447-0.245,0.728-0.333
		s0.593-0.132,0.938-0.132c0.298,0,0.578,0.052,0.84,0.154c0.261,0.103,0.49,0.254,0.686,0.455c0.196,0.2,0.353,0.45,0.47,0.749
		c0.116,0.298,0.175,0.639,0.175,1.021v3.206c0.009,0.131,0.044,0.231,0.104,0.301c0.061,0.07,0.171,0.105,0.329,0.105
		c0.168,0,0.317-0.042,0.448-0.126c0.065-0.037,0.126-0.079,0.182-0.126l0.057,1.399c-0.057,0.057-0.141,0.107-0.252,0.154
		c-0.112,0.047-0.236,0.091-0.371,0.133c-0.136,0.042-0.271,0.075-0.406,0.099c-0.136,0.022-0.255,0.034-0.357,0.034
		c-0.242,0-0.476-0.028-0.699-0.084c-0.225-0.056-0.421-0.149-0.589-0.28s-0.301-0.304-0.398-0.52
		c-0.098-0.215-0.147-0.481-0.147-0.8v-3.214C263.505,471.564,263.426,471.31,263.268,471.117z"/>
	<path fill="#845FA8" d="M272.983,471.613c-0.215-0.242-0.475-0.44-0.777-0.595c-0.304-0.154-0.665-0.23-1.085-0.23
		c-0.252,0-0.49,0.049-0.714,0.146c-0.225,0.098-0.42,0.243-0.588,0.434c-0.168,0.191-0.302,0.426-0.399,0.7
		c-0.098,0.275-0.147,0.586-0.147,0.932c0,0.699,0.173,1.243,0.519,1.631c0.345,0.387,0.812,0.581,1.4,0.581
		c0.252,0,0.484-0.028,0.699-0.084c0.215-0.057,0.406-0.131,0.574-0.225c0.168-0.093,0.317-0.195,0.448-0.308s0.247-0.22,0.35-0.322
		l0.546,1.33c-0.047,0.084-0.151,0.191-0.314,0.322c-0.164,0.131-0.374,0.259-0.63,0.385c-0.257,0.126-0.556,0.236-0.896,0.329
		s-0.721,0.14-1.141,0.14c-0.374,0-0.771-0.062-1.19-0.188s-0.81-0.331-1.169-0.616c-0.359-0.284-0.658-0.66-0.896-1.127
		c-0.238-0.467-0.357-1.036-0.357-1.708c0-0.682,0.124-1.27,0.371-1.764c0.247-0.495,0.56-0.903,0.938-1.226
		c0.379-0.321,0.796-0.558,1.254-0.707c0.457-0.148,0.896-0.224,1.315-0.224c0.317,0,0.611,0.03,0.882,0.091
		s0.514,0.133,0.729,0.217s0.398,0.176,0.553,0.273s0.273,0.188,0.357,0.272L272.983,471.613z"/>
	<path fill="#845FA8" d="M281.074,471.46c0,0.476-0.103,0.872-0.308,1.189s-0.474,0.572-0.805,0.764
		c-0.332,0.191-0.707,0.328-1.127,0.412c-0.421,0.084-0.846,0.126-1.274,0.126c-0.354,0-0.677-0.014-0.966-0.042
		c0.074,0.453,0.259,0.788,0.553,1.005s0.688,0.325,1.183,0.325c0.421,0,0.817-0.089,1.19-0.269s0.677-0.417,0.91-0.711l0.574,1.399
		c-0.28,0.309-0.668,0.572-1.162,0.791c-0.495,0.22-1.111,0.329-1.849,0.329c-0.354,0-0.734-0.051-1.141-0.153
		s-0.784-0.289-1.134-0.561c-0.351-0.271-0.642-0.642-0.875-1.112c-0.233-0.472-0.351-1.076-0.351-1.813
		c0-0.766,0.124-1.402,0.371-1.911s0.554-0.91,0.917-1.204c0.364-0.294,0.756-0.501,1.177-0.623c0.42-0.121,0.807-0.182,1.161-0.182
		c0.401,0,0.782,0.052,1.142,0.154s0.672,0.249,0.938,0.44c0.267,0.191,0.479,0.427,0.638,0.707
		C280.995,470.802,281.074,471.114,281.074,471.46z M279.185,471.544c0-0.271-0.103-0.485-0.308-0.645
		c-0.206-0.158-0.485-0.237-0.841-0.237c-0.261,0-0.485,0.054-0.672,0.16c-0.187,0.107-0.343,0.252-0.469,0.435
		c-0.126,0.182-0.22,0.395-0.28,0.637c-0.061,0.243-0.091,0.495-0.091,0.756c0.411,0,0.779-0.014,1.106-0.042
		c0.326-0.027,0.606-0.084,0.84-0.168s0.41-0.198,0.532-0.343C279.124,471.952,279.185,471.768,279.185,471.544z"/>
	<path fill="#845FA8" d="M282.335,476.64v-10.5l2.101-0.28v5.166c0.084-0.242,0.203-0.474,0.356-0.692
		c0.154-0.22,0.337-0.411,0.547-0.574s0.442-0.294,0.699-0.393c0.257-0.098,0.534-0.146,0.833-0.146s0.576,0.054,0.833,0.161
		s0.48,0.247,0.672,0.42s0.341,0.373,0.448,0.602c0.107,0.229,0.161,0.465,0.161,0.707c0,0.355-0.065,0.67-0.196,0.945
		s-0.312,0.514-0.546,0.714c-0.233,0.201-0.511,0.371-0.833,0.511c-0.321,0.141-0.674,0.243-1.057,0.309l0.742,0.952
		c0.177,0.233,0.345,0.396,0.504,0.489c0.158,0.094,0.345,0.141,0.56,0.141c0.141,0,0.267-0.019,0.378-0.057
		c0.112-0.037,0.205-0.079,0.28-0.126c0.074-0.046,0.133-0.091,0.175-0.133s0.063-0.072,0.063-0.091l0.069,1.526
		c-0.242,0.195-0.48,0.326-0.714,0.392s-0.471,0.098-0.714,0.098c-0.354,0-0.682-0.072-0.979-0.217
		c-0.299-0.145-0.569-0.375-0.812-0.692l-1.47-1.891v2.66H282.335z M284.575,472.649c0.28-0.009,0.567-0.03,0.861-0.062
		c0.294-0.033,0.564-0.091,0.812-0.175c0.248-0.084,0.45-0.201,0.609-0.351c0.158-0.149,0.238-0.336,0.238-0.56
		c0-0.205-0.084-0.386-0.252-0.539c-0.168-0.154-0.364-0.231-0.588-0.231c-0.243,0-0.467,0.075-0.673,0.225
		c-0.205,0.149-0.383,0.324-0.531,0.524c-0.149,0.201-0.267,0.411-0.351,0.63C284.617,472.33,284.575,472.51,284.575,472.649z"/>
	<path fill="#845FA8" d="M297.595,474.806c0,0.131,0.032,0.231,0.098,0.301c0.065,0.07,0.178,0.105,0.336,0.105
		c0.084,0,0.161-0.012,0.231-0.035c0.069-0.023,0.128-0.054,0.175-0.091c0.056-0.037,0.103-0.079,0.14-0.126l0.141,1.399
		c-0.057,0.057-0.141,0.107-0.252,0.154c-0.112,0.047-0.236,0.091-0.371,0.133c-0.136,0.042-0.271,0.075-0.406,0.099
		c-0.136,0.022-0.254,0.034-0.357,0.034c-0.429,0-0.813-0.089-1.154-0.266s-0.567-0.49-0.68-0.938
		c-0.242,0.393-0.576,0.691-1.001,0.896s-0.884,0.308-1.379,0.308c-0.308,0-0.637-0.056-0.986-0.168
		c-0.351-0.111-0.675-0.306-0.974-0.581c-0.299-0.274-0.548-0.646-0.749-1.112c-0.2-0.467-0.301-1.06-0.301-1.778
		c0-0.588,0.098-1.122,0.294-1.603c0.196-0.481,0.479-0.895,0.847-1.239c0.369-0.346,0.824-0.611,1.365-0.798s1.162-0.28,1.862-0.28
		c0.513,0,1.043,0.049,1.589,0.146c0.546,0.099,1.057,0.227,1.533,0.386V474.806z M295.494,470.914
		c-0.103-0.047-0.252-0.096-0.447-0.147c-0.196-0.051-0.485-0.077-0.868-0.077c-0.336,0-0.63,0.065-0.882,0.196
		s-0.462,0.304-0.63,0.518c-0.168,0.215-0.294,0.46-0.379,0.735c-0.084,0.275-0.126,0.562-0.126,0.861
		c0,0.317,0.033,0.611,0.099,0.882s0.168,0.504,0.308,0.7c0.141,0.195,0.315,0.35,0.525,0.462c0.21,0.111,0.459,0.168,0.749,0.168
		c0.205,0,0.408-0.037,0.608-0.112c0.201-0.074,0.378-0.182,0.532-0.322c0.154-0.14,0.277-0.31,0.371-0.511
		c0.094-0.2,0.14-0.422,0.14-0.665V470.914z"/>
	<path fill="#845FA8" d="M306.695,474.806c0,0.131,0.032,0.231,0.098,0.301c0.065,0.07,0.178,0.105,0.336,0.105
		c0.084,0,0.161-0.012,0.231-0.035c0.069-0.023,0.128-0.054,0.175-0.091c0.056-0.037,0.103-0.079,0.14-0.126l0.141,1.399
		c-0.057,0.057-0.141,0.107-0.252,0.154c-0.112,0.047-0.236,0.091-0.371,0.133c-0.136,0.042-0.271,0.075-0.406,0.099
		c-0.136,0.022-0.254,0.034-0.357,0.034c-0.429,0-0.813-0.089-1.154-0.266s-0.567-0.49-0.68-0.938
		c-0.242,0.393-0.576,0.691-1.001,0.896s-0.884,0.308-1.379,0.308c-0.308,0-0.637-0.056-0.986-0.168
		c-0.351-0.111-0.675-0.306-0.974-0.581c-0.299-0.274-0.548-0.646-0.749-1.112c-0.2-0.467-0.301-1.06-0.301-1.778
		c0-0.588,0.098-1.122,0.294-1.603c0.196-0.481,0.479-0.895,0.847-1.239c0.369-0.346,0.824-0.611,1.365-0.798s1.162-0.28,1.862-0.28
		c0.513,0,1.043,0.049,1.589,0.146c0.546,0.099,1.057,0.227,1.533,0.386V474.806z M304.595,470.914
		c-0.103-0.047-0.252-0.096-0.447-0.147c-0.196-0.051-0.485-0.077-0.868-0.077c-0.336,0-0.63,0.065-0.882,0.196
		s-0.462,0.304-0.63,0.518c-0.168,0.215-0.294,0.46-0.379,0.735c-0.084,0.275-0.126,0.562-0.126,0.861
		c0,0.317,0.033,0.611,0.099,0.882s0.168,0.504,0.308,0.7c0.141,0.195,0.315,0.35,0.525,0.462c0.21,0.111,0.459,0.168,0.749,0.168
		c0.205,0,0.408-0.037,0.608-0.112c0.201-0.074,0.378-0.182,0.532-0.322c0.154-0.14,0.277-0.31,0.371-0.511
		c0.094-0.2,0.14-0.422,0.14-0.665V470.914z"/>
	<path fill="#845FA8" d="M310.755,469.29v1.33c0.037-0.104,0.096-0.233,0.175-0.393c0.079-0.158,0.187-0.312,0.322-0.462
		c0.135-0.149,0.294-0.277,0.476-0.385c0.183-0.107,0.395-0.161,0.638-0.161c0.316,0,0.566,0.042,0.748,0.126
		c0.183,0.084,0.306,0.163,0.371,0.238l-0.699,1.777c-0.075-0.074-0.185-0.151-0.329-0.23c-0.146-0.079-0.329-0.119-0.554-0.119
		c-0.158,0-0.308,0.052-0.447,0.154c-0.141,0.103-0.262,0.229-0.364,0.378s-0.185,0.311-0.245,0.482
		c-0.061,0.173-0.091,0.329-0.091,0.47v4.144h-2.101v-7.14L310.755,469.29z"/>
	<path fill="#845FA8" d="M316.774,466.84v2.52h1.54v1.33h-1.54v3.962c0,0.188,0.061,0.336,0.182,0.448s0.309,0.168,0.561,0.168
		c0.317,0,0.653-0.121,1.008-0.364l0.14,1.33c-0.195,0.149-0.464,0.278-0.805,0.385c-0.341,0.107-0.702,0.161-1.085,0.161
		c-0.299,0-0.576-0.039-0.833-0.118c-0.257-0.08-0.479-0.198-0.665-0.357c-0.187-0.158-0.334-0.354-0.441-0.588
		s-0.16-0.509-0.16-0.826v-4.2h-0.98l0.14-1.33h0.841v-2.239L316.774,466.84z"/>
	<path fill="#B59FCB" d="M319.494,475.84c0-0.247,0.089-0.458,0.266-0.635c0.176-0.177,0.388-0.266,0.635-0.266
		c0.246,0,0.458,0.089,0.635,0.266s0.265,0.388,0.265,0.635c0,0.246-0.088,0.458-0.265,0.635s-0.389,0.265-0.635,0.265
		c-0.247,0-0.459-0.088-0.635-0.265C319.583,476.298,319.494,476.086,319.494,475.84z"/>
	<path fill="#B59FCB" d="M325.524,472.695c-0.113-0.137-0.307-0.206-0.58-0.206c-0.133,0-0.263,0.029-0.39,0.086
		s-0.238,0.13-0.335,0.221c-0.097,0.09-0.175,0.188-0.235,0.295c-0.06,0.107-0.09,0.211-0.09,0.311v3.238h-1.5v-5.1l1.5-0.15v0.911
		c0.04-0.099,0.106-0.204,0.2-0.316s0.213-0.217,0.36-0.312c0.146-0.096,0.319-0.175,0.52-0.238c0.2-0.062,0.424-0.094,0.67-0.094
		c0.214,0,0.413,0.036,0.601,0.109c0.187,0.074,0.35,0.183,0.489,0.325c0.141,0.144,0.252,0.322,0.335,0.535
		c0.084,0.214,0.125,0.457,0.125,0.73v2.29c0.007,0.093,0.032,0.165,0.075,0.215c0.044,0.05,0.122,0.075,0.235,0.075
		c0.12,0,0.227-0.03,0.32-0.091c0.046-0.026,0.09-0.057,0.13-0.09l0.04,1c-0.04,0.04-0.101,0.077-0.181,0.11
		s-0.168,0.064-0.265,0.095s-0.193,0.054-0.29,0.07s-0.182,0.024-0.255,0.024c-0.174,0-0.34-0.02-0.5-0.06s-0.3-0.107-0.42-0.2
		c-0.12-0.094-0.215-0.218-0.285-0.371c-0.07-0.154-0.105-0.345-0.105-0.571v-2.296
		C325.694,473.015,325.638,472.832,325.524,472.695z"/>
	<path fill="#B59FCB" d="M330.094,475.279c0,0.114,0.021,0.199,0.061,0.255c0.04,0.058,0.123,0.086,0.25,0.086
		c0.113,0,0.216-0.03,0.31-0.091c0.047-0.026,0.09-0.057,0.13-0.09l0.05,1c-0.04,0.04-0.1,0.077-0.18,0.11s-0.168,0.064-0.265,0.095
		s-0.193,0.054-0.29,0.07s-0.182,0.024-0.255,0.024c-0.174,0-0.341-0.02-0.5-0.06c-0.16-0.04-0.301-0.106-0.42-0.2
		c-0.12-0.093-0.216-0.217-0.285-0.37c-0.07-0.153-0.105-0.343-0.105-0.569v-6.381l1.5-0.22V475.279z"/>
</g>
</svg>
